<svg xmlns="http://www.w3.org/2000/svg" version="1.0" width="776" height="220" preserveAspectRatio="xMidYMid meet" style="">
    <rect id="backgroundrect" width="100%" height="100%" x="0" y="0" fill="#ffffff" stroke="none" class="selected" style="" />


    <g class="currentLayer" style="">
        <g transform="translate(0,480) scale(0.10000000149011612,-0.10000000149011612) " fill="#5f7af8" stroke="none" id="svg_1" class="">
            <path d="M7465,4638.019641876221 c-1679,-833 -3196,-1289 -4293,-1290 c-402,-1 -588,26 -997,141 c-553,156 -975,323 -1645,650 c-212,103 -418,202 -457,218 l-73,31 l0,-919 l0,-920 l3885,0 l3885,0 l0,1120 c0,616 -1,1120 -2,1119 c-2,0 -138,-68 -303,-150 z" id="svg_2" />
        </g>
    </g>
</svg>